Malaria over time - DASC 1104 blog
…
Form this graphic, we can see that the African continent has been the primary driver of Malaria deaths with some deaths in Asia. We also see a large drop in Malaria deaths in the mid 2000s for many African countries.

This leads to an interesting question: What are the countries that have had the highest Malaria deaths during the study period?

dat2 %>%
  mutate(age_group = fct_relevel(age_group, age_levels)) %>%
  filter(!(entity %in% non_countries)) %>%
  group_by(entity) %>%
  summarize(total_deaths = sum(deaths)) %>%
  arrange(desc(total_deaths))

## # A tibble: 199 x 2
##    entity                       total_deaths
##    <chr>                               <dbl>
##  1 Nigeria                          6781688.
##  2 Democratic Republic of Congo     2626521.
##  3 India                            1635914.
##  4 Uganda                           1385068.
##  5 Burkina Faso                      871502.
##  6 Tanzania                          840409.
##  7 Mozambique                        815691.
##  8 Cote d'Ivoire                     743532.
##  9 Niger                             703402.
## 10 Cameroon                          673736.
## # … with 189 more rows
…
Form this graphic, we can see that the African continent has the highest incidence of Malaria although in Asia, one country has had a very large decrease in Malaria incidence. The incidence rates in Africa have been slowly declining.

This leads to an interesting question: What are the countries that have had the highest Malaria incidence during 2000?

dat3 %>%
  filter(!(Entity %in% non_countries)) %>%
  filter(Year == "2000") %>%
  arrange(desc(incidence_per_1000_at_risk))

## # A tibble: 124 x 4
##    Entity                       Code   Year incidence_per_1000_at_risk
##    <chr>                        <chr> <dbl>                      <dbl>
##  1 Turkey                       TUR    2000                      1741 
##  2 Ethiopia                     ETH    2000                       662.
##  3 Burkina Faso                 BFA    2000                       622.
##  4 Cote d'Ivoire                CIV    2000                       525.
##  5 Togo                         TGO    2000                       518.
##  6 Uganda                       UGA    2000                       517.
##  7 Mozambique                   MOZ    2000                       516.
##  8 Democratic Republic of Congo COD    2000                       508.
##  9 Nigeria                      NGA    2000                       498.
## 10 Liberia                      LBR    2000                       497.
## # … with 114 more rows

The highest Malaria incidence in 2000 was in Turkey, with many African countries also having high incidence.

We can compare this to 2015 to see what has changed:

dat3 %>%
  filter(!(Entity %in% non_countries)) %>%
  filter(Year == "2015") %>%
  arrange(desc(incidence_per_1000_at_risk))

## # A tibble: 124 x 4
##    Entity        Code   Year incidence_per_1000_at_risk
##    <chr>         <chr> <dbl>                      <dbl>
##  1 Mali          MLI    2015                       449.
##  2 Burkina Faso  BFA    2015                       389.
##  3 Nigeria       NGA    2015                       381.
##  4 Guinea        GIN    2015                       368.
##  5 Niger         NER    2015                       356.
##  6 Cote d'Ivoire CIV    2015                       349.
##  7 Togo          TGO    2015                       345.
##  8 Sierra Leone  SLE    2015                       303.
##  9 Rwanda        RWA    2015                       301.
## 10 Mozambique    MOZ    2015                       298.
## # … with 114 more rows
…
